<?xml version="1.0" encoding="UTF-8" standalone="no"?>
<svg
   xmlns:dc="http://purl.org/dc/elements/1.1/"
   xmlns:cc="http://creativecommons.org/ns#"
   xmlns:rdf="http://www.w3.org/1999/02/22-rdf-syntax-ns#"
   xmlns:svg="http://www.w3.org/2000/svg"
   xmlns="http://www.w3.org/2000/svg"
   xmlns:sodipodi="http://sodipodi.sourceforge.net/DTD/sodipodi-0.dtd"
   xmlns:inkscape="http://www.inkscape.org/namespaces/inkscape"
   width="100%"
   height="100%"
   viewBox="0 0 346 346"
   version="1.1"
   xml:space="preserve"
   style="fill-rule:evenodd;clip-rule:evenodd;stroke-miterlimit:10;"
   id="svg103"
   sodipodi:docname="logo.svg"
   inkscape:version="1.0.2 (e86c870879, 2021-01-15)"><metadata
   id="metadata109"><rdf:RDF><cc:Work
       rdf:about=""><dc:format>image/svg+xml</dc:format><dc:type
         rdf:resource="http://purl.org/dc/dcmitype/StillImage" /><dc:title></dc:title></cc:Work></rdf:RDF></metadata><defs
   id="defs107"><filter
     style="color-interpolation-filters:sRGB;"
     inkscape:label="Greyscale"
     id="filter113"><feColorMatrix
       values="0.21 0.72 0.072 0 0 0.21 0.72 0.072 0 0 0.21 0.72 0.072 0 0 0 0 0 1 0 "
       id="feColorMatrix111"
       result="fbSourceGraphic" /><feColorMatrix
       result="fbSourceGraphicAlpha"
       in="fbSourceGraphic"
       values="0 0 0 -1 0 0 0 0 -1 0 0 0 0 -1 0 0 0 0 1 0"
       id="feColorMatrix119" /><feColorMatrix
       id="feColorMatrix121"
       values="0.21 0.72 0.072 0 0 0.21 0.72 0.072 0 0 0.21 0.72 0.072 0 0 0 0 0 1 0 "
       in="fbSourceGraphic" /></filter><filter
     style="color-interpolation-filters:sRGB;"
     inkscape:label="Greyscale"
     id="filter117"><feColorMatrix
       values="0.21 0.72 0.072 0 0 0.21 0.72 0.072 0 0 0.21 0.72 0.072 0 0 0 0 0 1 0 "
       id="feColorMatrix115"
       result="fbSourceGraphic" /><feColorMatrix
       result="fbSourceGraphicAlpha"
       in="fbSourceGraphic"
       values="0 0 0 -1 0 0 0 0 -1 0 0 0 0 -1 0 0 0 0 1 0"
       id="feColorMatrix123" /><feColorMatrix
       id="feColorMatrix125"
       values="0.21 0.72 0.072 0 0 0.21 0.72 0.072 0 0 0.21 0.72 0.072 0 0 0 0 0 1 0 "
       in="fbSourceGraphic" /></filter><filter
     style="color-interpolation-filters:sRGB;"
     inkscape:label="Greyscale"
     id="filter880"><feColorMatrix
       values="0.82 0.09 0.17 -0.1 0 0.82 0.09 0.17 -0.1 0 0.82 0.09 0.17 -0.1 0 0 0 0 1 0 "
       id="feColorMatrix878" /></filter><filter
     style="color-interpolation-filters:sRGB;"
     inkscape:label="Greyscale"
     id="filter884"><feColorMatrix
       values="0.82 0.09 0.17 -0.1 0 0.82 0.09 0.17 -0.1 0 0.82 0.09 0.17 -0.1 0 0 0 0 1 0 "
       id="feColorMatrix882" /></filter></defs><sodipodi:namedview
   pagecolor="#000000"
   bordercolor="#666666"
   borderopacity="1"
   objecttolerance="10"
   gridtolerance="10"
   guidetolerance="10"
   inkscape:pageopacity="0"
   inkscape:pageshadow="2"
   inkscape:window-width="960"
   inkscape:window-height="1080"
   id="namedview105"
   showgrid="false"
   inkscape:zoom="2.3265896"
   inkscape:cx="173"
   inkscape:cy="173"
   inkscape:window-x="960"
   inkscape:window-y="0"
   inkscape:window-maximized="0"
   inkscape:current-layer="svg103"
   inkscape:document-rotation="0" />
    <g
   transform="matrix(-0.985077,-0.172117,0.172117,-0.985077,477.125,433.441)"
   id="g92"
   style="filter:url(#filter884)">
        <g
   transform="matrix(-0.99995,-0.00999737,0.00999737,-0.99995,698.597,74.5384)"
   id="g6">
            <g
   transform="matrix(29,0,0,29,349.473,37.9149)"
   id="g4">
                <path
   d="M0.575,-0.275c-0.001,0.094 -0.022,0.164 -0.066,0.21c-0.044,0.046 -0.113,0.069 -0.207,0.069c-0.026,0 -0.052,-0 -0.076,-0c-0.024,-0 -0.048,-0.001 -0.073,-0.001c-0.024,-0.001 -0.049,-0.001 -0.076,-0.002l-0.005,-0.006l-0,-0.541l0.005,-0.006c0.027,-0.001 0.052,-0.001 0.076,-0.002c0.025,-0.001 0.049,-0.001 0.073,-0.001c0.024,-0.001 0.05,-0.001 0.076,-0.001c0.093,0 0.162,0.024 0.206,0.072c0.044,0.048 0.066,0.118 0.066,0.21Zm-0.161,-0.001c0.001,-0.018 -0.001,-0.036 -0.004,-0.055c-0.002,-0.019 -0.007,-0.036 -0.015,-0.052c-0.007,-0.016 -0.018,-0.028 -0.033,-0.038c-0.015,-0.01 -0.034,-0.015 -0.058,-0.015c-0.015,0 -0.028,0 -0.038,0c-0.011,0 -0.023,-0 -0.037,-0.001l0.001,0.321c0.014,-0.001 0.026,-0.001 0.036,-0.001c0.01,-0 0.023,-0.001 0.037,-0.001c0.025,0 0.044,-0.004 0.059,-0.014c0.015,-0.01 0.026,-0.022 0.033,-0.038c0.008,-0.016 0.013,-0.033 0.016,-0.051c0.002,-0.019 0.004,-0.037 0.004,-0.054Z"
   style="fill:#ff6f00;fill-rule:nonzero;"
   id="path2" />
            </g>
        </g>
        <g
   transform="matrix(-0.996504,0.0835402,-0.0835402,-0.996504,667.312,42.5712)"
   id="g12">
            <g
   transform="matrix(29,0,0,29,332.866,37.6386)"
   id="g10">
                <path
   d="M0.193,-0.275c-0,0.02 0.001,0.039 0.004,0.059c0.002,0.02 0.007,0.039 0.015,0.057c0.007,0.017 0.018,0.031 0.033,0.042c0.015,0.011 0.034,0.016 0.058,0.016c0.025,0 0.044,-0.005 0.059,-0.016c0.015,-0.011 0.026,-0.025 0.033,-0.042c0.008,-0.018 0.013,-0.037 0.015,-0.057c0.003,-0.02 0.004,-0.039 0.004,-0.058c-0,-0.02 -0.001,-0.04 -0.004,-0.06c-0.002,-0.021 -0.007,-0.04 -0.015,-0.057c-0.007,-0.018 -0.018,-0.032 -0.033,-0.043c-0.015,-0.011 -0.034,-0.016 -0.058,-0.016c-0.025,0 -0.044,0.005 -0.059,0.016c-0.015,0.011 -0.026,0.025 -0.033,0.043c-0.008,0.017 -0.013,0.036 -0.015,0.057c-0.003,0.02 -0.004,0.04 -0.004,0.059Zm-0.162,0.001c0.001,-0.06 0.011,-0.112 0.031,-0.155c0.021,-0.044 0.051,-0.077 0.092,-0.101c0.04,-0.024 0.09,-0.036 0.149,-0.036c0.06,0 0.11,0.012 0.151,0.036c0.04,0.023 0.07,0.057 0.091,0.1c0.02,0.044 0.031,0.096 0.031,0.156c-0,0.06 -0.011,0.111 -0.031,0.154c-0.021,0.043 -0.051,0.077 -0.092,0.1c-0.04,0.023 -0.09,0.035 -0.15,0.035c-0.06,0 -0.11,-0.012 -0.15,-0.035c-0.041,-0.024 -0.071,-0.057 -0.091,-0.1c-0.02,-0.044 -0.03,-0.095 -0.03,-0.155Z"
   style="fill:#ff6f00;fill-rule:nonzero;"
   id="path8" />
            </g>
        </g>
        <g
   transform="matrix(-0.972104,0.234552,-0.234552,-0.972104,631.151,-2.15305)"
   id="g18">
            <g
   transform="matrix(29,0,0,29,315.988,38.8481)"
   id="g16">
                <path
   d="M0.072,-0.548c0.012,-0.002 0.028,-0.005 0.046,-0.006c0.018,-0.002 0.032,-0.003 0.042,-0.003c0.011,0 0.025,0 0.045,0.001c0.019,0 0.034,0.002 0.046,0.005l-0.036,0.173l-0.007,0.003c0.002,0.026 0.003,0.054 0.005,0.085c0.001,0.03 0.002,0.058 0.003,0.083c0.001,0.025 0.001,0.044 0.001,0.055l0,0.152c-0.013,0.002 -0.025,0.004 -0.038,0.005c-0.012,0.001 -0.023,0.001 -0.033,0.001c-0.009,-0 -0.021,-0 -0.035,-0.001c-0.014,-0.001 -0.027,-0.003 -0.039,-0.005l0,-0.548Zm0.194,0.297c-0.002,-0.006 -0.006,-0.014 -0.011,-0.026c-0.005,-0.011 -0.01,-0.024 -0.016,-0.037c-0.006,-0.014 -0.011,-0.026 -0.016,-0.038c-0.005,-0.012 -0.009,-0.021 -0.011,-0.026l-0.043,-0.047l0.083,-0.126l0.117,0.251c0.002,0.004 0.006,0.013 0.012,0.025c0.005,0.012 0.011,0.026 0.018,0.041c0.006,0.014 0.012,0.028 0.018,0.041c0.005,0.013 0.009,0.023 0.012,0.029l0.05,0.052l-0.093,0.112l-0.12,-0.252Zm0.303,-0.299l-0,0.548c-0.013,0.003 -0.029,0.005 -0.047,0.007c-0.019,0.001 -0.033,0.002 -0.042,0.002c-0.007,-0 -0.016,-0 -0.028,-0.001c-0.012,0 -0.024,-0 -0.036,-0.001c-0.012,-0.001 -0.022,-0.002 -0.03,-0.004l0.04,-0.164l0.007,-0.002c-0.001,-0.022 -0.003,-0.048 -0.005,-0.077c-0.002,-0.029 -0.004,-0.058 -0.006,-0.085c-0.002,-0.027 -0.002,-0.049 -0.002,-0.066l-0,-0.078c-0,-0.035 0.007,-0.058 0.023,-0.069c0.015,-0.011 0.038,-0.017 0.068,-0.017l0.052,-0l0.006,0.007Z"
   style="fill:#ff6f00;fill-rule:nonzero;"
   id="path14" />
            </g>
        </g>
        <g
   transform="matrix(-0.917455,0.397839,-0.397839,-0.917455,582.938,-52.4655)"
   id="g24">
            <g
   transform="matrix(29,0,0,29,298.805,43.366)"
   id="g22">
                <path
   d="M0.042,-0.718c0,-0.011 0.001,-0.021 0.002,-0.031c0.001,-0.01 0.003,-0.02 0.005,-0.029c0.01,-0.006 0.02,-0.01 0.031,-0.013c0.011,-0.003 0.023,-0.004 0.036,-0.004c0.013,-0 0.025,0.001 0.036,0.004c0.011,0.003 0.021,0.007 0.031,0.013c0.002,0.009 0.004,0.019 0.005,0.029c0.001,0.01 0.002,0.02 0.002,0.031c0,0.007 -0.002,0.023 -0.006,0.046c-0.003,0.024 -0.008,0.052 -0.014,0.084c-0.005,0.033 -0.011,0.065 -0.017,0.098c-0.008,0.005 -0.021,0.008 -0.037,0.008c-0.017,-0.001 -0.029,-0.003 -0.038,-0.008c-0.006,-0.033 -0.011,-0.065 -0.017,-0.098c-0.005,-0.032 -0.01,-0.06 -0.014,-0.084c-0.003,-0.023 -0.005,-0.039 -0.005,-0.046Z"
   style="fill:#ff6f00;fill-rule:nonzero;"
   id="path20" />
            </g>
        </g>
        <g
   transform="matrix(-0.81667,0.577105,-0.577105,-0.81667,556.132,-91.0515)"
   id="g30">
            <g
   transform="matrix(29,0,0,29,293.288,45.1997)"
   id="g28">
                <path
   d="M0.007,-0.423c-0.003,-0.012 -0.004,-0.023 -0.005,-0.034c-0.001,-0.01 -0.001,-0.02 -0.001,-0.029c0,-0.008 0,-0.018 0.001,-0.03c0.001,-0.012 0.002,-0.024 0.005,-0.035l0.453,0c0.002,0.009 0.004,0.019 0.005,0.031c0.001,0.011 0.002,0.02 0.002,0.027c-0,0.023 -0.007,0.04 -0.019,0.052c-0.012,0.012 -0.031,0.018 -0.059,0.018l-0.021,0l-0.054,-0.001l-0.157,0l-0.057,0.001l-0.093,0Zm0.149,0.059l0.001,-0.06l0,-0.062l0.157,0l-0.001,0.062l0.002,0.061l-0.001,0.363c-0.009,0.002 -0.022,0.004 -0.038,0.005c-0.016,0.001 -0.03,0.001 -0.041,0.001c-0.01,0 -0.023,-0 -0.039,-0.001c-0.016,-0.002 -0.029,-0.003 -0.04,-0.005l0,-0.364Z"
   style="fill:#ff6f00;fill-rule:nonzero;"
   id="path26" />
            </g>
        </g>
        <g
   transform="matrix(-0.183562,0.983008,-0.983008,-0.183562,380.503,-206.289)"
   id="g36">
            <g
   transform="matrix(29,0,0,29,277.905,57.261)"
   id="g34">
                <path
   d="M0.575,-0.275c-0.001,0.094 -0.022,0.164 -0.066,0.21c-0.044,0.046 -0.113,0.069 -0.207,0.069c-0.026,0 -0.052,-0 -0.076,-0c-0.024,-0 -0.048,-0.001 -0.073,-0.001c-0.024,-0.001 -0.049,-0.001 -0.076,-0.002l-0.005,-0.006l-0,-0.541l0.005,-0.006c0.027,-0.001 0.052,-0.001 0.076,-0.002c0.025,-0.001 0.049,-0.001 0.073,-0.001c0.024,-0.001 0.05,-0.001 0.076,-0.001c0.093,0 0.162,0.024 0.206,0.072c0.044,0.048 0.066,0.118 0.066,0.21Zm-0.161,-0.001c0.001,-0.018 -0.001,-0.036 -0.004,-0.055c-0.002,-0.019 -0.007,-0.036 -0.015,-0.052c-0.007,-0.016 -0.018,-0.028 -0.033,-0.038c-0.015,-0.01 -0.034,-0.015 -0.058,-0.015c-0.015,0 -0.028,0 -0.038,0c-0.011,0 -0.023,-0 -0.037,-0.001l0.001,0.321c0.014,-0.001 0.026,-0.001 0.036,-0.001c0.01,-0 0.023,-0.001 0.037,-0.001c0.025,0 0.044,-0.004 0.059,-0.014c0.015,-0.01 0.026,-0.022 0.033,-0.038c0.008,-0.016 0.013,-0.033 0.016,-0.051c0.002,-0.019 0.004,-0.037 0.004,-0.054Z"
   style="fill:#ff6f00;fill-rule:nonzero;"
   id="path32" />
            </g>
        </g>
        <g
   transform="matrix(0.150288,0.988642,-0.988642,0.150288,302.199,-209.008)"
   id="g42">
            <g
   transform="matrix(29,0,0,29,275.473,73.6922)"
   id="g40">
                <path
   d="M0.074,-0.551c0.013,-0.003 0.027,-0.004 0.043,-0.005c0.016,-0.001 0.029,-0.001 0.038,-0.001c0.01,0 0.022,0 0.036,0.001c0.014,0.001 0.028,0.002 0.042,0.005l-0.001,0.551c-0.013,0.002 -0.027,0.004 -0.041,0.005c-0.014,0.001 -0.026,0.001 -0.036,0.001c-0.009,0 -0.022,-0 -0.038,-0.001c-0.016,-0.001 -0.03,-0.003 -0.043,-0.005l0,-0.551Z"
   style="fill:#ff6f00;fill-rule:nonzero;"
   id="path38" />
            </g>
        </g>
        <g
   transform="matrix(0.34233,0.93958,-0.93958,0.34233,254.181,-204.248)"
   id="g48">
            <g
   transform="matrix(29,0,0,29,276.407,81.8356)"
   id="g46">
                <path
   d="M0.229,0.003l-0.068,0c-0.028,0 -0.051,-0.008 -0.067,-0.024c-0.016,-0.016 -0.024,-0.038 -0.024,-0.066l0,-0.463l0.006,-0.006l0.06,0c0.03,0 0.053,0.008 0.069,0.023c0.016,0.015 0.023,0.04 0.023,0.076l0.001,0.46Zm0.232,-0.131c-0.002,0.049 -0.01,0.083 -0.026,0.102c-0.014,0.019 -0.041,0.029 -0.08,0.029l-0.193,-0l-0.067,-0.106c0.038,-0.008 0.078,-0.015 0.12,-0.019c0.041,-0.004 0.077,-0.006 0.106,-0.006l0.14,0Z"
   style="fill:#8b0000;fill-rule:nonzero;"
   id="path44" />
            </g>
        </g>
        <g
   transform="matrix(0.453456,0.891279,-0.891279,0.453456,233.413,-196.761)"
   id="g54">
            <g
   transform="matrix(29,0,0,29,281.041,94.3311)"
   id="g52">
                <path
   d="M0.229,0.003l-0.068,0c-0.028,0 -0.051,-0.008 -0.067,-0.024c-0.016,-0.016 -0.024,-0.038 -0.024,-0.066l0,-0.463l0.006,-0.006l0.06,0c0.03,0 0.053,0.008 0.069,0.023c0.016,0.015 0.023,0.04 0.023,0.076l0.001,0.46Zm0.232,-0.131c-0.002,0.049 -0.01,0.083 -0.026,0.102c-0.014,0.019 -0.041,0.029 -0.08,0.029l-0.193,-0l-0.067,-0.106c0.038,-0.008 0.078,-0.015 0.12,-0.019c0.041,-0.004 0.077,-0.006 0.106,-0.006l0.14,0Z"
   style="fill:#8b0000;fill-rule:nonzero;"
   id="path50" />
            </g>
        </g>
        <g
   transform="matrix(0.289747,0.957103,-0.957103,0.289747,297.186,-199.199)"
   id="g60">
            <g
   transform="matrix(29,0,0,29,286.031,103.029)"
   id="g58">
                <path
   d="M0.177,-0.226l0.155,0.001l0,0.225c-0.013,0.002 -0.026,0.004 -0.04,0.005c-0.014,0.001 -0.025,0.001 -0.035,0.001c-0.01,0 -0.022,-0 -0.038,-0.001c-0.015,-0.001 -0.029,-0.003 -0.042,-0.005l0,-0.226Zm0.175,-0.325c0.012,-0.002 0.024,-0.004 0.036,-0.005c0.012,-0.001 0.024,-0.001 0.033,-0.001c0.014,0 0.027,0.001 0.04,0.002c0.013,0.002 0.024,0.004 0.033,0.008l0.008,0.008l-0.179,0.404l-0.135,0l-0.179,-0.402c0.014,-0.007 0.03,-0.012 0.047,-0.016c0.017,-0.005 0.033,-0.007 0.047,-0.007c0.022,0 0.039,0.004 0.053,0.013c0.013,0.009 0.024,0.025 0.033,0.046l0.033,0.089c0.009,0.025 0.016,0.044 0.021,0.06c0.005,0.016 0.01,0.035 0.014,0.056l0.006,-0c0.006,-0.024 0.013,-0.046 0.02,-0.068c0.007,-0.021 0.014,-0.042 0.021,-0.062l0.048,-0.124Z"
   style="fill:#ff6f00;fill-rule:nonzero;"
   id="path56" />
            </g>
        </g>
        <g
   transform="matrix(-0.258238,0.966081,-0.966081,-0.258238,476.972,-132.913)"
   id="g66">
            <g
   transform="matrix(29,0,0,29,291.348,119.046)"
   id="g64">
                <path
   d="M0.575,-0.275c-0.001,0.094 -0.022,0.164 -0.066,0.21c-0.044,0.046 -0.113,0.069 -0.207,0.069c-0.026,0 -0.052,-0 -0.076,-0c-0.024,-0 -0.048,-0.001 -0.073,-0.001c-0.024,-0.001 -0.049,-0.001 -0.076,-0.002l-0.005,-0.006l-0,-0.541l0.005,-0.006c0.027,-0.001 0.052,-0.001 0.076,-0.002c0.025,-0.001 0.049,-0.001 0.073,-0.001c0.024,-0.001 0.05,-0.001 0.076,-0.001c0.093,0 0.162,0.024 0.206,0.072c0.044,0.048 0.066,0.118 0.066,0.21Zm-0.161,-0.001c0.001,-0.018 -0.001,-0.036 -0.004,-0.055c-0.002,-0.019 -0.007,-0.036 -0.015,-0.052c-0.007,-0.016 -0.018,-0.028 -0.033,-0.038c-0.015,-0.01 -0.034,-0.015 -0.058,-0.015c-0.015,0 -0.028,0 -0.038,0c-0.011,0 -0.023,-0 -0.037,-0.001l0.001,0.321c0.014,-0.001 0.026,-0.001 0.036,-0.001c0.01,-0 0.023,-0.001 0.037,-0.001c0.025,0 0.044,-0.004 0.059,-0.014c0.015,-0.01 0.026,-0.022 0.033,-0.038c0.008,-0.016 0.013,-0.033 0.016,-0.051c0.002,-0.019 0.004,-0.037 0.004,-0.054Z"
   style="fill:#ff6f00;fill-rule:nonzero;"
   id="path62" />
            </g>
        </g>
        <g
   transform="matrix(-0.734495,0.678615,-0.678615,-0.734495,586.52,36.8345)"
   id="g72">
            <g
   transform="matrix(29,0,0,29,286.99,135.546)"
   id="g70">
                <path
   d="M0.199,-0.551c0.017,-0.003 0.034,-0.004 0.05,-0.005c0.016,-0.001 0.031,-0.001 0.044,-0.001c0.013,0 0.026,0 0.041,0.001c0.014,0.001 0.03,0.002 0.048,0.005l0.189,0.544c-0.012,0.005 -0.026,0.009 -0.044,0.012c-0.018,0.003 -0.033,0.004 -0.044,0.004c-0.018,0 -0.036,-0.003 -0.053,-0.01c-0.017,-0.007 -0.03,-0.026 -0.038,-0.056l-0.062,-0.197c-0.005,-0.017 -0.01,-0.036 -0.015,-0.057c-0.005,-0.021 -0.01,-0.041 -0.015,-0.062c-0.005,-0.02 -0.01,-0.039 -0.014,-0.057l-0.006,0c-0.007,0.025 -0.015,0.054 -0.023,0.087c-0.009,0.033 -0.017,0.062 -0.025,0.088l-0.081,0.255c-0.01,0.002 -0.021,0.004 -0.032,0.005c-0.011,0.001 -0.023,0.002 -0.035,0.002c-0.014,0 -0.027,-0.001 -0.041,-0.003c-0.013,-0.002 -0.024,-0.005 -0.033,-0.009l-0.005,-0.008l0.194,-0.538Zm0.013,0.455c-0.005,-0 -0.009,-0.001 -0.013,-0.001c-0.005,0 -0.009,-0 -0.014,-0c-0.004,-0 -0.009,-0 -0.013,-0l-0.071,-0l0.049,-0.123l0.061,0c0.004,0 0.009,-0 0.013,-0c0.005,-0 0.009,-0.001 0.014,-0.001c0.004,0 0.009,0 0.014,0l0.062,0c0.005,0 0.009,0 0.013,0c0.004,0 0.008,0.001 0.012,0.001c0.004,-0 0.008,0 0.013,0l0.066,0l0.043,0.123l-0.073,-0c-0.005,-0 -0.01,-0 -0.014,-0c-0.004,-0 -0.009,0 -0.013,0c-0.004,0 -0.009,0.001 -0.013,0.001l-0.136,-0Z"
   style="fill:#ff6f00;fill-rule:nonzero;"
   id="path68" />
            </g>
        </g>
        <g
   transform="matrix(-0.940807,0.338943,-0.338943,-0.940807,582.72,185.563)"
   id="g78">
            <g
   transform="matrix(29,0,0,29,275.574,146.057)"
   id="g76">
                <path
   d="M0.229,0.003l-0.068,0c-0.028,0 -0.051,-0.008 -0.067,-0.024c-0.016,-0.016 -0.024,-0.038 -0.024,-0.066l0,-0.463l0.006,-0.006l0.06,0c0.03,0 0.053,0.008 0.069,0.023c0.016,0.015 0.023,0.04 0.023,0.076l0.001,0.46Zm0.232,-0.131c-0.002,0.049 -0.01,0.083 -0.026,0.102c-0.014,0.019 -0.041,0.029 -0.08,0.029l-0.193,-0l-0.067,-0.106c0.038,-0.008 0.078,-0.015 0.12,-0.019c0.041,-0.004 0.077,-0.006 0.106,-0.006l0.14,0Z"
   style="fill:#8b0000;fill-rule:nonzero;"
   id="path74" />
            </g>
        </g>
        <g
   transform="matrix(-0.999991,-0.00425667,0.00425667,-0.999991,525.411,298.424)"
   id="g84">
            <g
   transform="matrix(29,0,0,29,263.018,151.045)"
   id="g82">
                <path
   d="M0.229,0.003l-0.068,0c-0.028,0 -0.051,-0.008 -0.067,-0.024c-0.016,-0.016 -0.024,-0.038 -0.024,-0.066l0,-0.463l0.006,-0.006l0.06,0c0.03,0 0.053,0.008 0.069,0.023c0.016,0.015 0.023,0.04 0.023,0.076l0.001,0.46Zm0.232,-0.131c-0.002,0.049 -0.01,0.083 -0.026,0.102c-0.014,0.019 -0.041,0.029 -0.08,0.029l-0.193,-0l-0.067,-0.106c0.038,-0.008 0.078,-0.015 0.12,-0.019c0.041,-0.004 0.077,-0.006 0.106,-0.006l0.14,0Z"
   style="fill:#8b0000;fill-rule:nonzero;"
   id="path80" />
            </g>
        </g>
        <g
   transform="matrix(-0.856729,-0.515767,0.515767,-0.856729,390.508,408.537)"
   id="g90">
            <g
   transform="matrix(29,0,0,29,251.332,152.422)"
   id="g88">
                <path
   d="M0.177,-0.226l0.155,0.001l0,0.225c-0.013,0.002 -0.026,0.004 -0.04,0.005c-0.014,0.001 -0.025,0.001 -0.035,0.001c-0.01,0 -0.022,-0 -0.038,-0.001c-0.015,-0.001 -0.029,-0.003 -0.042,-0.005l0,-0.226Zm0.175,-0.325c0.012,-0.002 0.024,-0.004 0.036,-0.005c0.012,-0.001 0.024,-0.001 0.033,-0.001c0.014,0 0.027,0.001 0.04,0.002c0.013,0.002 0.024,0.004 0.033,0.008l0.008,0.008l-0.179,0.404l-0.135,0l-0.179,-0.402c0.014,-0.007 0.03,-0.012 0.047,-0.016c0.017,-0.005 0.033,-0.007 0.047,-0.007c0.022,0 0.039,0.004 0.053,0.013c0.013,0.009 0.024,0.025 0.033,0.046l0.033,0.089c0.009,0.025 0.016,0.044 0.021,0.06c0.005,0.016 0.01,0.035 0.014,0.056l0.006,-0c0.006,-0.024 0.013,-0.046 0.02,-0.068c0.007,-0.021 0.014,-0.042 0.021,-0.062l0.048,-0.124Z"
   style="fill:#ff6f00;fill-rule:nonzero;"
   id="path86" />
            </g>
        </g>
    </g>
    <g
   id="BIRD"
   style="filter:url(#filter880)">
        <path
   id="tail"
   d="M54.905,78.689c63.803,40.121 80.413,74.075 49.856,101.755c-41.22,6.158 -57.83,-27.797 -49.856,-101.755Z"
   style="fill:#6a6a6a;" />
        <path
   id="body"
   d="M160.293,129.03c18.272,11.04 30.535,26.014 36.741,45.003c6.207,18.988 4.544,36.292 -4.967,52.032c-9.511,15.741 -24.125,25.219 -43.703,28.519c-19.578,3.299 -38.538,-0.592 -56.879,-11.675c-18.272,-11.04 -30.605,-26.056 -36.812,-45.045c-6.255,-18.908 -4.592,-36.212 4.919,-51.952c9.511,-15.741 24.056,-25.261 43.752,-28.599c19.718,-3.215 38.677,0.677 56.949,11.717Z"
   style="fill:#ff6f00;" />
        <path
   id="chest"
   d="M133.188,171.557c12.649,-5.605 25.896,-7.017 39.619,-4.219c13.843,2.778 24.259,8.965 31.19,18.51c6.931,9.545 8.35,19.643 4.371,30.395c-4.037,10.7 -12.38,18.853 -24.972,24.508c-12.65,5.604 -25.896,7.017 -39.739,4.238c-13.844,-2.778 -24.202,-8.914 -31.133,-18.459c-6.932,-9.545 -8.408,-19.694 -4.371,-30.394c4.042,-10.823 12.385,-18.975 25.035,-24.579Z"
   style="fill:#ffe5d7;" />
        <path
   id="wing2"
   d="M129.178,195.023c-39.027,27.059 -70.313,3.631 -94.103,-70.269c81.73,4.812 113.138,28.232 94.103,70.269Z"
   style="fill:#8c0000;" />
        <path
   id="wing1"
   d="M233.105,98.793c5.941,50.322 -5.658,72.287 -34.726,65.868c-21.775,-20.416 -10.176,-42.381 34.726,-65.868Z"
   style="fill:#8c0000;" />
        <path
   id="crest"
   d="M108.371,102.51c60.546,-11.111 86.745,-0.638 78.566,31.344c-24.876,25.414 -51.075,14.942 -78.566,-31.344Z"
   style="fill:#6a6a6a;" />
        <path
   id="head"
   d="M135.776,213.926c-11.305,-10.285 -17.318,-23.029 -18.04,-38.309c-0.723,-15.28 4.059,-28.535 14.343,-39.84c10.285,-11.305 23.029,-17.318 38.309,-18.041c15.28,-0.722 28.535,4.06 39.84,14.344c11.305,10.284 17.318,23.029 18.041,38.309c0.722,15.28 -4.06,28.534 -14.344,39.84c-10.284,11.305 -23.105,17.321 -38.309,18.041c-15.204,0.719 -28.534,-4.06 -39.84,-14.344Z"
   style="fill:#ff6f00;" />
        <path
   id="beak"
   d="M224.732,231.087c-35.649,-23.028 -43.595,-42.171 -23.771,-57.493c24.861,-3.111 32.808,16.033 23.771,57.493Z"
   style="fill:#ffd600;" />
    </g>
</svg>
