<svg id="svg103" clip-rule="evenodd" fill-rule="evenodd" stroke-miterlimit="10" version="1.1" viewBox="0 0 346 346" xml:space="preserve" xmlns="http://www.w3.org/2000/svg"><defs id="defs107"><filter id="filter880" color-interpolation-filters="sRGB"><feColorMatrix id="feColorMatrix878" values="0.82 0.09 0.17 -0.1 0 0.82 0.09 0.17 -0.1 0 0.82 0.09 0.17 -0.1 0 0 0 0 1 0 "/></filter><filter id="filter884" color-interpolation-filters="sRGB"><feColorMatrix id="feColorMatrix882" values="0.82 0.09 0.17 -0.1 0 0.82 0.09 0.17 -0.1 0 0.82 0.09 0.17 -0.1 0 0 0 0 1 0 "/></filter></defs>
    <g id="g92" transform="matrix(-.98508 -.17212 .17212 -.98508 477.12 433.44)" filter="url(#filter884)">
        <g id="g6" transform="matrix(-.99995 -.0099974 .0099974 -.99995 698.6 74.538)">
            <g id="g4" transform="matrix(29 0 0 29 349.47 37.915)">
                <path id="path2" d="m0.575-0.275c-1e-3 0.094-0.022 0.164-0.066 0.21s-0.113 0.069-0.207 0.069h-0.076c-0.024-0-0.048-1e-3 -0.073-1e-3 -0.024-1e-3 -0.049-1e-3 -0.076-2e-3l-5e-3 -6e-3v-0.541l5e-3 -6e-3c0.027-1e-3 0.052-1e-3 0.076-2e-3 0.025-1e-3 0.049-1e-3 0.073-1e-3 0.024-1e-3 0.05-1e-3 0.076-1e-3 0.093 0 0.162 0.024 0.206 0.072s0.066 0.118 0.066 0.21zm-0.161-1e-3c1e-3 -0.018-1e-3 -0.036-4e-3 -0.055-2e-3 -0.019-7e-3 -0.036-0.015-0.052-7e-3 -0.016-0.018-0.028-0.033-0.038s-0.034-0.015-0.058-0.015h-0.038c-0.011 0-0.023-0-0.037-1e-3l1e-3 0.321c0.014-1e-3 0.026-1e-3 0.036-1e-3s0.023-1e-3 0.037-1e-3c0.025 0 0.044-4e-3 0.059-0.014s0.026-0.022 0.033-0.038c8e-3 -0.016 0.013-0.033 0.016-0.051 2e-3 -0.019 4e-3 -0.037 4e-3 -0.054z" fill="#ff6f00" fill-rule="nonzero"/>
            </g>
        </g>
        <g id="g12" transform="matrix(-.9965 .08354 -.08354 -.9965 667.31 42.571)">
            <g id="g10" transform="matrix(29 0 0 29 332.87 37.639)">
                <path id="path8" d="m0.193-0.275c-0 0.02 1e-3 0.039 4e-3 0.059 2e-3 0.02 7e-3 0.039 0.015 0.057 7e-3 0.017 0.018 0.031 0.033 0.042s0.034 0.016 0.058 0.016c0.025 0 0.044-5e-3 0.059-0.016s0.026-0.025 0.033-0.042c8e-3 -0.018 0.013-0.037 0.015-0.057 3e-3 -0.02 4e-3 -0.039 4e-3 -0.058-0-0.02-1e-3 -0.04-4e-3 -0.06-2e-3 -0.021-7e-3 -0.04-0.015-0.057-7e-3 -0.018-0.018-0.032-0.033-0.043s-0.034-0.016-0.058-0.016c-0.025 0-0.044 5e-3 -0.059 0.016s-0.026 0.025-0.033 0.043c-8e-3 0.017-0.013 0.036-0.015 0.057-3e-3 0.02-4e-3 0.04-4e-3 0.059zm-0.162 1e-3c1e-3 -0.06 0.011-0.112 0.031-0.155 0.021-0.044 0.051-0.077 0.092-0.101 0.04-0.024 0.09-0.036 0.149-0.036 0.06 0 0.11 0.012 0.151 0.036 0.04 0.023 0.07 0.057 0.091 0.1 0.02 0.044 0.031 0.096 0.031 0.156s-0.011 0.111-0.031 0.154c-0.021 0.043-0.051 0.077-0.092 0.1-0.04 0.023-0.09 0.035-0.15 0.035s-0.11-0.012-0.15-0.035c-0.041-0.024-0.071-0.057-0.091-0.1-0.02-0.044-0.03-0.095-0.03-0.155z" fill="#ff6f00" fill-rule="nonzero"/>
            </g>
        </g>
        <g id="g18" transform="matrix(-.9721 .23455 -.23455 -.9721 631.15 -2.153)">
            <g id="g16" transform="matrix(29 0 0 29 315.99 38.848)">
                <path id="path14" d="m0.072-0.548c0.012-2e-3 0.028-5e-3 0.046-6e-3 0.018-2e-3 0.032-3e-3 0.042-3e-3 0.011 0 0.025 0 0.045 1e-3 0.019 0 0.034 2e-3 0.046 5e-3l-0.036 0.173-7e-3 3e-3c2e-3 0.026 3e-3 0.054 5e-3 0.085 1e-3 0.03 2e-3 0.058 3e-3 0.083s1e-3 0.044 1e-3 0.055v0.152c-0.013 2e-3 -0.025 4e-3 -0.038 5e-3 -0.012 1e-3 -0.023 1e-3 -0.033 1e-3 -9e-3 -0-0.021-0-0.035-1e-3s-0.027-3e-3 -0.039-5e-3v-0.548zm0.194 0.297c-2e-3 -6e-3 -6e-3 -0.014-0.011-0.026-5e-3 -0.011-0.01-0.024-0.016-0.037-6e-3 -0.014-0.011-0.026-0.016-0.038s-9e-3 -0.021-0.011-0.026l-0.043-0.047 0.083-0.126 0.117 0.251c2e-3 4e-3 6e-3 0.013 0.012 0.025 5e-3 0.012 0.011 0.026 0.018 0.041 6e-3 0.014 0.012 0.028 0.018 0.041 5e-3 0.013 9e-3 0.023 0.012 0.029l0.05 0.052-0.093 0.112-0.12-0.252zm0.303-0.299v0.548c-0.013 3e-3 -0.029 5e-3 -0.047 7e-3 -0.019 1e-3 -0.033 2e-3 -0.042 2e-3 -7e-3 -0-0.016-0-0.028-1e-3 -0.012 0-0.024-0-0.036-1e-3s-0.022-2e-3 -0.03-4e-3l0.04-0.164 7e-3 -2e-3c-1e-3 -0.022-3e-3 -0.048-5e-3 -0.077s-4e-3 -0.058-6e-3 -0.085-2e-3 -0.049-2e-3 -0.066v-0.078c-0-0.035 7e-3 -0.058 0.023-0.069 0.015-0.011 0.038-0.017 0.068-0.017h0.052l6e-3 7e-3z" fill="#ff6f00" fill-rule="nonzero"/>
            </g>
        </g>
        <g id="g24" transform="matrix(-.91746 .39784 -.39784 -.91746 582.94 -52.466)">
            <g id="g22" transform="matrix(29 0 0 29 298.8 43.366)">
                <path id="path20" d="m0.042-0.718c0-0.011 1e-3 -0.021 2e-3 -0.031s3e-3 -0.02 5e-3 -0.029c0.01-6e-3 0.02-0.01 0.031-0.013s0.023-4e-3 0.036-4e-3 0.025 1e-3 0.036 4e-3 0.021 7e-3 0.031 0.013c2e-3 9e-3 4e-3 0.019 5e-3 0.029s2e-3 0.02 2e-3 0.031c0 7e-3 -2e-3 0.023-6e-3 0.046-3e-3 0.024-8e-3 0.052-0.014 0.084-5e-3 0.033-0.011 0.065-0.017 0.098-8e-3 5e-3 -0.021 8e-3 -0.037 8e-3 -0.017-1e-3 -0.029-3e-3 -0.038-8e-3 -6e-3 -0.033-0.011-0.065-0.017-0.098-5e-3 -0.032-0.01-0.06-0.014-0.084-3e-3 -0.023-5e-3 -0.039-5e-3 -0.046z" fill="#ff6f00" fill-rule="nonzero"/>
            </g>
        </g>
        <g id="g30" transform="matrix(-.81667 .5771 -.5771 -.81667 556.13 -91.052)">
            <g id="g28" transform="matrix(29 0 0 29 293.29 45.2)">
                <path id="path26" d="m7e-3 -0.423c-3e-3 -0.012-4e-3 -0.023-5e-3 -0.034-1e-3 -0.01-1e-3 -0.02-1e-3 -0.029 0-8e-3 0-0.018 1e-3 -0.03s2e-3 -0.024 5e-3 -0.035h0.453c2e-3 9e-3 4e-3 0.019 5e-3 0.031 1e-3 0.011 2e-3 0.02 2e-3 0.027-0 0.023-7e-3 0.04-0.019 0.052s-0.031 0.018-0.059 0.018h-0.021l-0.054-1e-3h-0.157l-0.057 1e-3h-0.093zm0.149 0.059 1e-3 -0.06v-0.062h0.157l-1e-3 0.062 2e-3 0.061-1e-3 0.363c-9e-3 2e-3 -0.022 4e-3 -0.038 5e-3s-0.03 1e-3 -0.041 1e-3c-0.01 0-0.023-0-0.039-1e-3 -0.016-2e-3 -0.029-3e-3 -0.04-5e-3v-0.364z" fill="#ff6f00" fill-rule="nonzero"/>
            </g>
        </g>
        <g id="g36" transform="matrix(-.18356 .98301 -.98301 -.18356 380.5 -206.29)">
            <g id="g34" transform="matrix(29 0 0 29 277.9 57.261)">
                <path id="path32" d="m0.575-0.275c-1e-3 0.094-0.022 0.164-0.066 0.21s-0.113 0.069-0.207 0.069h-0.076c-0.024-0-0.048-1e-3 -0.073-1e-3 -0.024-1e-3 -0.049-1e-3 -0.076-2e-3l-5e-3 -6e-3v-0.541l5e-3 -6e-3c0.027-1e-3 0.052-1e-3 0.076-2e-3 0.025-1e-3 0.049-1e-3 0.073-1e-3 0.024-1e-3 0.05-1e-3 0.076-1e-3 0.093 0 0.162 0.024 0.206 0.072s0.066 0.118 0.066 0.21zm-0.161-1e-3c1e-3 -0.018-1e-3 -0.036-4e-3 -0.055-2e-3 -0.019-7e-3 -0.036-0.015-0.052-7e-3 -0.016-0.018-0.028-0.033-0.038s-0.034-0.015-0.058-0.015h-0.038c-0.011 0-0.023-0-0.037-1e-3l1e-3 0.321c0.014-1e-3 0.026-1e-3 0.036-1e-3s0.023-1e-3 0.037-1e-3c0.025 0 0.044-4e-3 0.059-0.014s0.026-0.022 0.033-0.038c8e-3 -0.016 0.013-0.033 0.016-0.051 2e-3 -0.019 4e-3 -0.037 4e-3 -0.054z" fill="#ff6f00" fill-rule="nonzero"/>
            </g>
        </g>
        <g id="g42" transform="matrix(.15029 .98864 -.98864 .15029 302.2 -209.01)">
            <g id="g40" transform="matrix(29 0 0 29 275.47 73.692)">
                <path id="path38" d="m0.074-0.551c0.013-3e-3 0.027-4e-3 0.043-5e-3s0.029-1e-3 0.038-1e-3c0.01 0 0.022 0 0.036 1e-3s0.028 2e-3 0.042 5e-3l-1e-3 0.551c-0.013 2e-3 -0.027 4e-3 -0.041 5e-3s-0.026 1e-3 -0.036 1e-3c-9e-3 0-0.022-0-0.038-1e-3s-0.03-3e-3 -0.043-5e-3v-0.551z" fill="#ff6f00" fill-rule="nonzero"/>
            </g>
        </g>
        <g id="g48" transform="matrix(.34233 .93958 -.93958 .34233 254.18 -204.25)">
            <g id="g46" transform="matrix(29 0 0 29 276.41 81.836)">
                <path id="path44" d="m0.229 3e-3h-0.068c-0.028 0-0.051-8e-3 -0.067-0.024s-0.024-0.038-0.024-0.066v-0.463l6e-3 -6e-3h0.06c0.03 0 0.053 8e-3 0.069 0.023s0.023 0.04 0.023 0.076l1e-3 0.46zm0.232-0.131c-2e-3 0.049-0.01 0.083-0.026 0.102-0.014 0.019-0.041 0.029-0.08 0.029h-0.193l-0.067-0.106c0.038-8e-3 0.078-0.015 0.12-0.019 0.041-4e-3 0.077-6e-3 0.106-6e-3h0.14z" fill="#8b0000" fill-rule="nonzero"/>
            </g>
        </g>
        <g id="g54" transform="matrix(.45346 .89128 -.89128 .45346 233.41 -196.76)">
            <g id="g52" transform="matrix(29 0 0 29 281.04 94.331)">
                <path id="path50" d="m0.229 3e-3h-0.068c-0.028 0-0.051-8e-3 -0.067-0.024s-0.024-0.038-0.024-0.066v-0.463l6e-3 -6e-3h0.06c0.03 0 0.053 8e-3 0.069 0.023s0.023 0.04 0.023 0.076l1e-3 0.46zm0.232-0.131c-2e-3 0.049-0.01 0.083-0.026 0.102-0.014 0.019-0.041 0.029-0.08 0.029h-0.193l-0.067-0.106c0.038-8e-3 0.078-0.015 0.12-0.019 0.041-4e-3 0.077-6e-3 0.106-6e-3h0.14z" fill="#8b0000" fill-rule="nonzero"/>
            </g>
        </g>
        <g id="g60" transform="matrix(.28975 .9571 -.9571 .28975 297.19 -199.2)">
            <g id="g58" transform="matrix(29 0 0 29 286.03 103.03)">
                <path id="path56" d="m0.177-0.226 0.155 1e-3v0.225c-0.013 2e-3 -0.026 4e-3 -0.04 5e-3s-0.025 1e-3 -0.035 1e-3 -0.022-0-0.038-1e-3c-0.015-1e-3 -0.029-3e-3 -0.042-5e-3v-0.226zm0.175-0.325c0.012-2e-3 0.024-4e-3 0.036-5e-3s0.024-1e-3 0.033-1e-3c0.014 0 0.027 1e-3 0.04 2e-3 0.013 2e-3 0.024 4e-3 0.033 8e-3l8e-3 8e-3 -0.179 0.404h-0.135l-0.179-0.402c0.014-7e-3 0.03-0.012 0.047-0.016 0.017-5e-3 0.033-7e-3 0.047-7e-3 0.022 0 0.039 4e-3 0.053 0.013 0.013 9e-3 0.024 0.025 0.033 0.046l0.033 0.089c9e-3 0.025 0.016 0.044 0.021 0.06s0.01 0.035 0.014 0.056h6e-3c6e-3 -0.024 0.013-0.046 0.02-0.068 7e-3 -0.021 0.014-0.042 0.021-0.062l0.048-0.124z" fill="#ff6f00" fill-rule="nonzero"/>
            </g>
        </g>
        <g id="g66" transform="matrix(-.25824 .96608 -.96608 -.25824 476.97 -132.91)">
            <g id="g64" transform="matrix(29 0 0 29 291.35 119.05)">
                <path id="path62" d="m0.575-0.275c-1e-3 0.094-0.022 0.164-0.066 0.21s-0.113 0.069-0.207 0.069h-0.076c-0.024-0-0.048-1e-3 -0.073-1e-3 -0.024-1e-3 -0.049-1e-3 -0.076-2e-3l-5e-3 -6e-3v-0.541l5e-3 -6e-3c0.027-1e-3 0.052-1e-3 0.076-2e-3 0.025-1e-3 0.049-1e-3 0.073-1e-3 0.024-1e-3 0.05-1e-3 0.076-1e-3 0.093 0 0.162 0.024 0.206 0.072s0.066 0.118 0.066 0.21zm-0.161-1e-3c1e-3 -0.018-1e-3 -0.036-4e-3 -0.055-2e-3 -0.019-7e-3 -0.036-0.015-0.052-7e-3 -0.016-0.018-0.028-0.033-0.038s-0.034-0.015-0.058-0.015h-0.038c-0.011 0-0.023-0-0.037-1e-3l1e-3 0.321c0.014-1e-3 0.026-1e-3 0.036-1e-3s0.023-1e-3 0.037-1e-3c0.025 0 0.044-4e-3 0.059-0.014s0.026-0.022 0.033-0.038c8e-3 -0.016 0.013-0.033 0.016-0.051 2e-3 -0.019 4e-3 -0.037 4e-3 -0.054z" fill="#ff6f00" fill-rule="nonzero"/>
            </g>
        </g>
        <g id="g72" transform="matrix(-.7345 .67862 -.67862 -.7345 586.52 36.834)">
            <g id="g70" transform="matrix(29 0 0 29 286.99 135.55)">
                <path id="path68" d="m0.199-0.551c0.017-3e-3 0.034-4e-3 0.05-5e-3s0.031-1e-3 0.044-1e-3 0.026 0 0.041 1e-3c0.014 1e-3 0.03 2e-3 0.048 5e-3l0.189 0.544c-0.012 5e-3 -0.026 9e-3 -0.044 0.012s-0.033 4e-3 -0.044 4e-3c-0.018 0-0.036-3e-3 -0.053-0.01s-0.03-0.026-0.038-0.056l-0.062-0.197c-5e-3 -0.017-0.01-0.036-0.015-0.057s-0.01-0.041-0.015-0.062c-5e-3 -0.02-0.01-0.039-0.014-0.057h-6e-3c-7e-3 0.025-0.015 0.054-0.023 0.087-9e-3 0.033-0.017 0.062-0.025 0.088l-0.081 0.255c-0.01 2e-3 -0.021 4e-3 -0.032 5e-3s-0.023 2e-3 -0.035 2e-3c-0.014 0-0.027-1e-3 -0.041-3e-3 -0.013-2e-3 -0.024-5e-3 -0.033-9e-3l-5e-3 -8e-3 0.194-0.538zm0.013 0.455c-5e-3 -0-9e-3 -1e-3 -0.013-1e-3h-0.014-0.013-0.071l0.049-0.123h0.061 0.013c5e-3 -0 9e-3 -1e-3 0.014-1e-3h0.014 0.062 0.013c4e-3 0 8e-3 1e-3 0.012 1e-3h0.013 0.066l0.043 0.123h-0.073-0.014-0.013c-4e-3 0-9e-3 1e-3 -0.013 1e-3h-0.136z" fill="#ff6f00" fill-rule="nonzero"/>
            </g>
        </g>
        <g id="g78" transform="matrix(-.94081 .33894 -.33894 -.94081 582.72 185.56)">
            <g id="g76" transform="matrix(29 0 0 29 275.57 146.06)">
                <path id="path74" d="m0.229 3e-3h-0.068c-0.028 0-0.051-8e-3 -0.067-0.024s-0.024-0.038-0.024-0.066v-0.463l6e-3 -6e-3h0.06c0.03 0 0.053 8e-3 0.069 0.023s0.023 0.04 0.023 0.076l1e-3 0.46zm0.232-0.131c-2e-3 0.049-0.01 0.083-0.026 0.102-0.014 0.019-0.041 0.029-0.08 0.029h-0.193l-0.067-0.106c0.038-8e-3 0.078-0.015 0.12-0.019 0.041-4e-3 0.077-6e-3 0.106-6e-3h0.14z" fill="#8b0000" fill-rule="nonzero"/>
            </g>
        </g>
        <g id="g84" transform="matrix(-.99999 -.0042567 .0042567 -.99999 525.41 298.42)">
            <g id="g82" transform="matrix(29 0 0 29 263.02 151.04)">
                <path id="path80" d="m0.229 3e-3h-0.068c-0.028 0-0.051-8e-3 -0.067-0.024s-0.024-0.038-0.024-0.066v-0.463l6e-3 -6e-3h0.06c0.03 0 0.053 8e-3 0.069 0.023s0.023 0.04 0.023 0.076l1e-3 0.46zm0.232-0.131c-2e-3 0.049-0.01 0.083-0.026 0.102-0.014 0.019-0.041 0.029-0.08 0.029h-0.193l-0.067-0.106c0.038-8e-3 0.078-0.015 0.12-0.019 0.041-4e-3 0.077-6e-3 0.106-6e-3h0.14z" fill="#8b0000" fill-rule="nonzero"/>
            </g>
        </g>
        <g id="g90" transform="matrix(-.85673 -.51577 .51577 -.85673 390.51 408.54)">
            <g id="g88" transform="matrix(29 0 0 29 251.33 152.42)">
                <path id="path86" d="m0.177-0.226 0.155 1e-3v0.225c-0.013 2e-3 -0.026 4e-3 -0.04 5e-3s-0.025 1e-3 -0.035 1e-3 -0.022-0-0.038-1e-3c-0.015-1e-3 -0.029-3e-3 -0.042-5e-3v-0.226zm0.175-0.325c0.012-2e-3 0.024-4e-3 0.036-5e-3s0.024-1e-3 0.033-1e-3c0.014 0 0.027 1e-3 0.04 2e-3 0.013 2e-3 0.024 4e-3 0.033 8e-3l8e-3 8e-3 -0.179 0.404h-0.135l-0.179-0.402c0.014-7e-3 0.03-0.012 0.047-0.016 0.017-5e-3 0.033-7e-3 0.047-7e-3 0.022 0 0.039 4e-3 0.053 0.013 0.013 9e-3 0.024 0.025 0.033 0.046l0.033 0.089c9e-3 0.025 0.016 0.044 0.021 0.06s0.01 0.035 0.014 0.056h6e-3c6e-3 -0.024 0.013-0.046 0.02-0.068 7e-3 -0.021 0.014-0.042 0.021-0.062l0.048-0.124z" fill="#ff6f00" fill-rule="nonzero"/>
            </g>
        </g>
    </g>
    <g id="BIRD" filter="url(#filter880)">
        <path id="tail" d="m54.905 78.689c63.803 40.121 80.413 74.075 49.856 101.76-41.22 6.158-57.83-27.797-49.856-101.76z" fill="#6a6a6a"/>
        <path id="body" d="m160.29 129.03c18.272 11.04 30.535 26.014 36.741 45.003 6.207 18.988 4.544 36.292-4.967 52.032-9.511 15.741-24.125 25.219-43.703 28.519-19.578 3.299-38.538-0.592-56.879-11.675-18.272-11.04-30.605-26.056-36.812-45.045-6.255-18.908-4.592-36.212 4.919-51.952 9.511-15.741 24.056-25.261 43.752-28.599 19.718-3.215 38.677 0.677 56.949 11.717z" fill="#ff6f00"/>
        <path id="chest" d="m133.19 171.56c12.649-5.605 25.896-7.017 39.619-4.219 13.843 2.778 24.259 8.965 31.19 18.51s8.35 19.643 4.371 30.395c-4.037 10.7-12.38 18.853-24.972 24.508-12.65 5.604-25.896 7.017-39.739 4.238-13.844-2.778-24.202-8.914-31.133-18.459-6.932-9.545-8.408-19.694-4.371-30.394 4.042-10.823 12.385-18.975 25.035-24.579z" fill="#ffe5d7"/>
        <path id="wing2" d="m129.18 195.02c-39.027 27.059-70.313 3.631-94.103-70.269 81.73 4.812 113.14 28.232 94.103 70.269z" fill="#8c0000"/>
        <path id="wing1" d="m233.1 98.793c5.941 50.322-5.658 72.287-34.726 65.868-21.775-20.416-10.176-42.381 34.726-65.868z" fill="#8c0000"/>
        <path id="crest" d="m108.37 102.51c60.546-11.111 86.745-0.638 78.566 31.344-24.876 25.414-51.075 14.942-78.566-31.344z" fill="#6a6a6a"/>
        <path id="head" d="m135.78 213.93c-11.305-10.285-17.318-23.029-18.04-38.309-0.723-15.28 4.059-28.535 14.343-39.84 10.285-11.305 23.029-17.318 38.309-18.041 15.28-0.722 28.535 4.06 39.84 14.344s17.318 23.029 18.041 38.309c0.722 15.28-4.06 28.534-14.344 39.84-10.284 11.305-23.105 17.321-38.309 18.041-15.204 0.719-28.534-4.06-39.84-14.344z" fill="#ff6f00"/>
        <path id="beak" d="m224.73 231.09c-35.649-23.028-43.595-42.171-23.771-57.493 24.861-3.111 32.808 16.033 23.771 57.493z" fill="#ffd600"/>
    </g>
</svg>
